name,year_of_est,street,street_number,postal_code
Τζιόλας,1978,Χ. Τρικούπη,16,10681
Πανεπιστημιακές Εκδόσεις Κρήτης,1984,Θουκυδίδου,4,10556
Παπασωτηρίου,1990,Στουρνάρη,49,10682
Κλειδάριθμος,2001,Στουρνάρη,27,10682
Πανεπιστημιακές Εκδόσεις Ε.Μ.Π.,1980,"Θωμαΐδειο Κτήριο Εκδόσεων,
Πολυτεχνειούπολη Ζωγράφου",,15772
